Средний 1_0 mean=-0.539 RMS=48.972 MAV=36.792 WL=1842.580 f_max1=1.094 amp1=986.585 f_max2=1.406 amp2=926.389 f_max3=0.781 amp3=848.834
Средний 10_0 mean=0.510 RMS=41.919 MAV=23.411 WL=1094.572 f_max1=0.781 amp1=778.731 f_max2=0.938 amp2=675.514 f_max3=1.094 amp3=547.738
Средний 11_0 mean=0.077 RMS=43.292 MAV=22.901 WL=1099.481 f_max1=0.781 amp1=717.855 f_max2=1.094 amp2=700.967 f_max3=0.938 amp3=699.194
Средний 12_0 mean=-0.149 RMS=42.877 MAV=24.357 WL=1066.083 f_max1=0.781 amp1=872.240 f_max2=0.938 amp2=602.391 f_max3=1.094 amp3=582.792
Средний 13_0 mean=0.083 RMS=40.079 MAV=20.904 WL=985.404 f_max1=0.781 amp1=688.815 f_max2=0.938 amp2=634.373 f_max3=1.094 amp3=569.061
Средний 14_0 mean=0.290 RMS=44.490 MAV=27.110 WL=1171.500 f_max1=0.781 amp1=915.563 f_max2=1.094 amp2=717.112 f_max3=0.938 amp3=521.269
Средний 15_0 mean=0.121 RMS=39.323 MAV=23.289 WL=1167.473 f_max1=0.781 amp1=738.634 f_max2=1.094 amp2=584.767 f_max3=0.938 amp3=557.271
Средний 16_0 mean=0.391 RMS=47.118 MAV=31.266 WL=1504.238 f_max1=0.938 amp1=892.674 f_max2=1.562 amp2=845.813 f_max3=0.781 amp3=837.687
Средний 17_0 mean=0.800 RMS=48.448 MAV=32.765 WL=1743.433 f_max1=0.938 amp1=982.619 f_max2=1.094 amp2=741.392 f_max3=1.406 amp3=696.499
Средний 18_0 mean=-0.179 RMS=43.944 MAV=28.775 WL=1472.854 f_max1=1.406 amp1=846.341 f_max2=0.781 amp2=798.811 f_max3=0.625 amp3=546.434
Средний 19_0 mean=0.020 RMS=33.669 MAV=18.148 WL=858.141 f_max1=0.781 amp1=547.219 f_max2=0.938 amp2=528.089 f_max3=1.094 amp3=468.444
Средний 2_0 mean=-0.331 RMS=51.082 MAV=42.567 WL=2005.033 f_max1=0.938 amp1=1462.133 f_max2=1.094 amp2=789.464 f_max3=1.562 amp3=670.054
Средний 20_0 mean=0.230 RMS=41.545 MAV=22.933 WL=983.808 f_max1=0.781 amp1=780.597 f_max2=0.938 amp2=638.528 f_max3=1.094 amp3=525.526
Средний 21_0 mean=-0.030 RMS=38.486 MAV=20.957 WL=952.700 f_max1=0.781 amp1=682.133 f_max2=0.938 amp2=626.398 f_max3=1.094 amp3=528.663
Средний 22_0 mean=0.097 RMS=42.140 MAV=23.641 WL=1137.882 f_max1=0.781 amp1=768.806 f_max2=0.938 amp2=748.289 f_max3=1.094 amp3=603.510
Средний 23_0 mean=-0.175 RMS=44.320 MAV=23.978 WL=1115.482 f_max1=0.781 amp1=792.199 f_max2=0.938 amp2=685.538 f_max3=1.250 amp3=564.551
Средний 3_0 mean=-0.619 RMS=42.786 MAV=29.166 WL=1362.327 f_max1=0.781 amp1=788.952 f_max2=1.250 amp2=746.971 f_max3=1.719 amp3=513.706
Средний 4_0 mean=0.208 RMS=42.095 MAV=30.081 WL=1537.088 f_max1=1.250 amp1=816.858 f_max2=0.781 amp2=809.688 f_max3=0.938 amp3=780.059
Средний 5_0 mean=-0.091 RMS=47.102 MAV=25.431 WL=1102.378 f_max1=0.781 amp1=871.396 f_max2=0.938 amp2=758.783 f_max3=1.094 amp3=595.955
Средний 6_0 mean=-0.545 RMS=39.752 MAV=25.890 WL=1052.259 f_max1=0.625 amp1=707.030 f_max2=0.938 amp2=678.924 f_max3=1.094 amp3=556.240
Средний 7_0 mean=0.059 RMS=28.368 MAV=14.883 WL=824.608 f_max1=0.781 amp1=427.927 f_max2=0.938 amp2=416.454 f_max3=1.094 amp3=412.273
Средний 8_0 mean=0.066 RMS=43.105 MAV=26.113 WL=1113.412 f_max1=0.781 amp1=954.569 f_max2=1.094 amp2=641.661 f_max3=0.938 amp3=581.235
Средний 9_0 mean=0.047 RMS=37.731 MAV=20.338 WL=931.643 f_max1=0.781 amp1=688.777 f_max2=0.938 amp2=615.393 f_max3=1.094 amp3=526.113
