WHEELCHAIR 0_0 mean=323.250 RMS=323.251 MAV=323.250 WL=103.000 f_max1=0.391 amp1=78.553 f_max2=1.172 amp2=50.493 f_max3=1.953 amp3=46.045
WHEELCHAIR 0_1 mean=323.375 RMS=323.378 MAV=323.375 WL=109.000 f_max1=0.781 amp1=125.299 f_max2=1.172 amp2=81.120 f_max3=1.953 amp3=81.011
WHEELCHAIR 0_2 mean=323.027 RMS=323.031 MAV=323.027 WL=108.000 f_max1=0.781 amp1=145.402 f_max2=0.391 amp2=116.044 f_max3=2.734 amp3=90.008
WHEELCHAIR 0_3 mean=322.746 RMS=322.749 MAV=322.746 WL=104.000 f_max1=0.391 amp1=109.502 f_max2=1.172 amp2=85.215 f_max3=2.734 amp3=84.616
WHEELCHAIR 0_4 mean=323.000 RMS=323.003 MAV=323.000 WL=100.000 f_max1=0.781 amp1=123.383 f_max2=1.172 amp2=108.466 f_max3=2.734 amp3=101.920
WHEELCHAIR 0_5 mean=323.148 RMS=323.151 MAV=323.148 WL=92.000 f_max1=1.172 amp1=116.272 f_max2=2.734 amp2=88.014 f_max3=2.344 amp3=82.815
WHEELCHAIR 0_6 mean=323.363 RMS=323.366 MAV=323.363 WL=107.000 f_max1=1.172 amp1=96.500 f_max2=2.344 amp2=90.697 f_max3=1.562 amp3=87.831
WHEELCHAIR 0_7 mean=323.125 RMS=323.128 MAV=323.125 WL=120.000 f_max1=0.391 amp1=111.019 f_max2=2.344 amp2=89.477 f_max3=3.906 amp3=72.728
WHEELCHAIR 0_8 mean=322.996 RMS=322.998 MAV=322.996 WL=105.000 f_max1=2.344 amp1=108.336 f_max2=0.391 amp2=85.752 f_max3=0.781 amp3=78.231
WHEELCHAIR 0_9 mean=322.945 RMS=322.948 MAV=322.945 WL=96.000 f_max1=2.344 amp1=111.361 f_max2=0.781 amp2=81.042 f_max3=3.516 amp3=67.056
WHEELCHAIR 0_10 mean=322.949 RMS=322.951 MAV=322.949 WL=102.000 f_max1=1.562 amp1=95.544 f_max2=0.391 amp2=57.710 f_max3=3.906 amp3=57.028
WHEELCHAIR 0_11 mean=323.090 RMS=323.092 MAV=323.090 WL=98.000 f_max1=0.781 amp1=92.456 f_max2=1.172 amp2=90.836 f_max3=1.953 amp3=50.171
WHEELCHAIR 0_12 mean=323.234 RMS=323.236 MAV=323.234 WL=106.000 f_max1=0.781 amp1=104.313 f_max2=1.562 amp2=64.935 f_max3=2.344 amp3=62.909
WHEELCHAIR 0_13 mean=323.012 RMS=323.014 MAV=323.012 WL=113.000 f_max1=1.172 amp1=104.812 f_max2=0.391 amp2=68.667 f_max3=4.297 amp3=68.152
WHEELCHAIR 0_14 mean=322.840 RMS=322.843 MAV=322.840 WL=105.000 f_max1=3.906 amp1=105.161 f_max2=2.344 amp2=102.366 f_max3=1.172 amp3=95.587
WHEELCHAIR 0_15 mean=322.918 RMS=322.920 MAV=322.918 WL=100.000 f_max1=1.562 amp1=96.443 f_max2=2.344 amp2=79.874 f_max3=1.953 amp3=69.482
WHEELCHAIR 0_16 mean=322.746 RMS=322.748 MAV=322.746 WL=93.000 f_max1=1.953 amp1=79.812 f_max2=1.172 amp2=74.416 f_max3=2.734 amp3=60.846
WHEELCHAIR 0_17 mean=322.742 RMS=322.744 MAV=322.742 WL=96.000 f_max1=1.172 amp1=99.611 f_max2=0.391 amp2=97.702 f_max3=2.344 amp3=59.360
WHEELCHAIR 0_18 mean=322.980 RMS=322.982 MAV=322.980 WL=105.000 f_max1=2.344 amp1=81.408 f_max2=0.781 amp2=72.833 f_max3=0.391 amp3=69.292
WHEELCHAIR 0_19 mean=323.090 RMS=323.091 MAV=323.090 WL=105.000 f_max1=2.344 amp1=66.745 f_max2=1.562 amp2=63.543 f_max3=3.516 amp3=55.117
WHEELCHAIR 0_20 mean=322.809 RMS=322.812 MAV=322.809 WL=107.000 f_max1=1.953 amp1=133.341 f_max2=0.781 amp2=118.999 f_max3=2.344 amp3=93.532
WHEELCHAIR 0_21 mean=322.777 RMS=322.782 MAV=322.777 WL=123.000 f_max1=1.562 amp1=136.762 f_max2=2.344 amp2=130.696 f_max3=0.781 amp3=116.526
WHEELCHAIR 0_22 mean=323.023 RMS=323.027 MAV=323.023 WL=130.000 f_max1=1.562 amp1=172.364 f_max2=2.344 amp2=102.474 f_max3=2.734 amp3=102.118
