396
392
391
393
396
396
394
390
400
392
391
389
385
386
392
390
390
388
392
407
438
451
471
485
501
509
488
468
452
411
389
364
344
326
319
306
313
311
303
303
309
309
315
319
325
330
333
339
344
349
347
344
350
353
354
355
361
369
362
363
371
359
357
364