411
407
398
399
396
399
395
390
385
386
385
385
383
391
388
390
391
395
390
392
396
395
401
405
396
402
412
397
392
390
394
396
395
395
393
395
397
399
405
395
395
399
403
398
395
400
390
391
395
397
389
393
395
396
396
394
405
405
396
398
399
395
399
406