LEFT 0_0 mean=322.422 RMS=322.437 MAV=322.422 WL=145.000 f_max1=1.953 amp1=241.633 f_max2=2.344 amp2=227.495 f_max3=2.734 amp3=198.912
LEFT 0_1 mean=322.441 RMS=322.456 MAV=322.441 WL=149.000 f_max1=2.344 amp1=224.373 f_max2=0.391 amp2=220.280 f_max3=2.734 amp3=207.607
LEFT 0_2 mean=322.301 RMS=322.303 MAV=322.301 WL=107.000 f_max1=0.781 amp1=71.385 f_max2=2.344 amp2=66.833 f_max3=1.953 amp3=64.958
LEFT 0_3 mean=322.188 RMS=322.190 MAV=322.188 WL=122.000 f_max1=1.953 amp1=117.099 f_max2=2.344 amp2=101.474 f_max3=1.562 amp3=65.142
LEFT 0_4 mean=322.348 RMS=322.350 MAV=322.348 WL=123.000 f_max1=1.562 amp1=117.322 f_max2=2.344 amp2=107.191 f_max3=2.734 amp3=54.945
LEFT 0_5 mean=322.410 RMS=322.412 MAV=322.410 WL=112.000 f_max1=1.172 amp1=86.162 f_max2=2.344 amp2=81.490 f_max3=1.562 amp3=75.317
LEFT 0_6 mean=322.391 RMS=322.392 MAV=322.391 WL=101.000 f_max1=2.344 amp1=78.784 f_max2=2.734 amp2=61.216 f_max3=0.781 amp3=58.407
LEFT 0_7 mean=322.445 RMS=322.447 MAV=322.445 WL=97.000 f_max1=1.172 amp1=89.334 f_max2=0.781 amp2=87.834 f_max3=2.344 amp3=83.043
LEFT 0_8 mean=322.270 RMS=322.272 MAV=322.270 WL=111.000 f_max1=1.172 amp1=161.299 f_max2=2.344 amp2=96.866 f_max3=0.781 amp3=72.580
LEFT 0_9 mean=322.152 RMS=322.155 MAV=322.152 WL=108.000 f_max1=1.172 amp1=135.063 f_max2=2.344 amp2=90.038 f_max3=1.562 amp3=70.707
LEFT 0_10 mean=322.258 RMS=322.260 MAV=322.258 WL=109.000 f_max1=0.781 amp1=116.348 f_max2=2.344 amp2=74.301 f_max3=1.562 amp3=67.298
LEFT 0_11 mean=322.363 RMS=322.365 MAV=322.363 WL=111.000 f_max1=2.344 amp1=108.425 f_max2=0.781 amp2=103.762 f_max3=1.562 amp3=71.297
LEFT 0_12 mean=322.414 RMS=322.416 MAV=322.414 WL=112.000 f_max1=1.562 amp1=122.716 f_max2=1.953 amp2=75.666 f_max3=2.344 amp3=65.914
LEFT 0_13 mean=322.023 RMS=322.026 MAV=322.023 WL=109.000 f_max1=1.562 amp1=91.805 f_max2=0.391 amp2=91.034 f_max3=1.953 amp3=83.732
LEFT 0_14 mean=322.355 RMS=322.359 MAV=322.355 WL=108.000 f_max1=0.391 amp1=159.001 f_max2=1.562 amp2=116.459 f_max3=1.953 amp3=80.357
LEFT 0_15 mean=322.574 RMS=322.577 MAV=322.574 WL=104.000 f_max1=0.391 amp1=108.858 f_max2=1.172 amp2=99.302 f_max3=0.781 amp3=96.392
LEFT 0_16 mean=322.332 RMS=322.335 MAV=322.332 WL=103.000 f_max1=0.391 amp1=88.783 f_max2=2.734 amp2=85.804 f_max3=1.172 amp3=85.667
LEFT 0_17 mean=322.449 RMS=322.453 MAV=322.449 WL=115.000 f_max1=0.391 amp1=124.152 f_max2=2.734 amp2=105.842 f_max3=1.953 amp3=98.852
LEFT 0_18 mean=322.254 RMS=322.256 MAV=322.254 WL=110.000 f_max1=0.781 amp1=103.290 f_max2=3.906 amp2=62.983 f_max3=2.734 amp3=61.630
LEFT 0_19 mean=322.199 RMS=322.201 MAV=322.199 WL=95.000 f_max1=1.562 amp1=89.010 f_max2=1.172 amp2=81.714 f_max3=1.953 amp3=70.815
LEFT 0_20 mean=322.180 RMS=322.182 MAV=322.180 WL=98.000 f_max1=1.562 amp1=152.499 f_max2=0.781 amp2=53.645 f_max3=1.953 amp3=45.936
LEFT 0_21 mean=322.418 RMS=322.420 MAV=322.418 WL=109.000 f_max1=1.953 amp1=89.253 f_max2=0.391 amp2=74.927 f_max3=0.781 amp3=59.034
LEFT 0_22 mean=322.566 RMS=322.568 MAV=322.566 WL=115.000 f_max1=0.781 amp1=88.084 f_max2=1.953 amp2=78.646 f_max3=0.391 amp3=71.832
