414
403
378
335
294
245
267
297
315
331
356
430
450
431
423
437
412
377
351
340
369
380
393
390
399
415
414
408
401
385
343
297
253
254
266
268
295
337
390
432
431
408
391
388
364
310
279
325
343
362
378
395
408
405
419
430
400
380
343
296
268
278
283
302