403
420
423
434
422
423
421
436
416
420
416
414
404
354
296
268
277
306
394
502
532
536
529
445
390
381
371
383
389
388
401
414
421
406
372
333
295
272
278
303
324
347
366
421
469
492
443
379
350
351
355
370
362
359
368
382
381
369
329
296
269
261
269
301