331
301
306
319
340
355
355
363
374
401
410
415
394
379
332
295
272
284
319
378
428
497
557
566
461
390
351
340
347
340
343
344
331
318
316
317
316
310
300
280
272
296
373
456
531
584
526
455
399
370
363
367
362
367
356
354
343
331
316
297
318
333
296
294