285
295
314
333
379
406
420
393
350
353
335
339
354
365
372
403
430
429
407
388
356
283
264
266
292
304
320
382
403
368
346
400
436
452
427
359
349
351
355
366
389
429
443
438
438
415
399
384
329
261
221
251
273
313
352
283
271
383
472
492
476
413
397
411