451
419
390
370
363
365
377
377
369
402
417
414
398
343
288
270
262
269
283
312
415
521
531
510
469
424
385
374
372
371
369
385
398
411
393
353
304
253
229
232
241
264
322
521
628
599
526
466
426
406
406
398
382
389
389
401
410
363
304
239
190
212
245
283