319
222
228
283
338
405
400
381
371
386
367
352
362
440
458
435
312
262
226
260
247
248
359
455
490
510
540
565
602
631
644
611
557
558
546
511
455
379
284
56
8
26
59
117
363
749
776
647
520
429
399
438
447
414
368
367
372
337
333
327
344
363
370
375