747
618
506
455
426
415
437
474
540
523
462
411
322
212
177
234
383
633
788
794
711
551
441
390
391
406
424
509
489
420
368
316
280
268
284
354
609
723
698
563
475
409
385
375
389
419
532
559
482
411
289
216
182
223
301
492
757
812
748
597
465
414
398
410