745
744
659
491
417
371
377
396
424
558
577
476
391
295
215
203
257
336
486
713
768
741
639
504
401
373
377
389
435
564
588
496
385
290
180
180
257
352
497
686
772
734
615
487
423
403
406
429
475
598
645
612
627
618
448
290
263
298
443
700
774
685
516
324