384
372
329
312
318
317
303
262
211
190
200
247
351
568
598
634
653
580
494
437
403
392
387
379
347
299
272
303
321
331
301
253
247
281
379
489
511
582
604
529
443
393
379
371
376
381
390
374
316
280
287
315
337
346
348
333
329
348
392
431
533
561
493
431