512
463
433
433
443
458
481
513
459
327
258
302
386
444
497
605
726
740
703
612
500
423
406
397
403
419
477
504
458
367
291
206
205
269
342
420
568
665
684
642
546
439
407
395
427
442
517
528
486
376
261
199
219
300
386
463
575
672
751
690
602
511
445
447