475
520
577
526
431
303
245
271
339
411
533
630
662
615
545
443
378
392
414
436
459
501
567
566
488
369
273
260
312
376
434
535
642
660
616
484
359
342
382
423
461
545
587
534
402
255
248
300
379
484
593
653
627
570
471
412
421
459
460
497
544
518
436
334