356
370
371
374
375
373
376
375
380
384
376
382
384
376
376
375
371
378
372
380
368
365
363
366
364
369
369
366
353
355
354
353
353
349
350
349
352
351
348
351
352
353
351
353
347
348
350
352
352
351
350
355
358
357
356
355
357
358
360
369
363
364
