391
384
372
360
346
336
332
330
324
323
326
320
323
327
338
331
334
345
349
352
353
355
370
364
369
369
378
371
376
375
377
380
374
375
379
379
377
378
376
375
375
377
375
372
370
374
374
375
380
368
370
369
371
377
374
360
372
363
363
362
362
366
360
364