440
437
438
444
447
464
444
442
448
448
442
438
433
435
438
441
433
429
433
436
442
436
430
438
439
435
434
447
433
435
436
436
433
437
453
437
436
433
434
446
436
436
451
439
438
438
438
436
432
452
439
440
435
433
436
441
436
433
430
431
433
456
433
430