486
476
488
461
447
435
431
411
408
406
406
401
397
400
393
392
404
391
399
404
411
414
418
437
434
437
439
437
462
446
445
446
443
453
469
529
548
595
645
670
654
598
527
456
395
355
332
319
316
326
330
338
347
354
379
380
388
411
396
413
408
411
414
411