346
351
353
352
353
362
354
357
359
358
364
353
360
362
365
367
372
369
372
381
372
370
370
376
378
381
383
391
391
383
383
383
383
382
388
389
389
387
384
384
389
396
390
389
385
386
394
384
389
381
390
385
385
383
383
377
373
373
374
373
371
370
372
371