410
401
400
414
422
431
429
428
433
443
439
443
449
470
503
540
577
592
570
519
433
330
247
197
198
228
271
315
356
415
440
470
508
503
517
527
534
536
519
516
513
507
493
479
472
483
468
460
448
451
464
481
496
504
512
496
470
444
412
396
374
369
367
372
