440
436
438
444
447
442
454
446
443
445
437
433
437
440
460
439
438
439
456
441
442
438
439
438
444
455
476
513
556
609
618
594
561
519
463
411
373
350
359
345
355
354
374
370
381
386
406
394
403
406
414
421
416
433
425
430
429
430
430
435
437
442
436
435