442
436
443
444
448
437
438
439
445
446
437
454
439
438
434
435
437
438
445
446
436
438
441
441
456
438
443
446
448
452
453
467
464
454
450
459
441
436
430
426
427
423
426
434
427
425
428
433
447
439
436
436
438
439
436
440
432
433
437
431
432
426
435
433