445
445
439
434
435
437
436
441
430
429
433
435
453
433
433
436
440
437
436
434
443
438
438
439
434
438
442
438
436
444
438
437
438
437
434
434
450
437
438
434
433
453
437
438
435
445
437
439
438
437
432
437
439
442
437
433
437
440
441
439
436
451
438
442