421
415
421
409
411
427
426
430
438
445
446
452
461
464
465
465
469
467
465
462
456
452
456
450
431
424
411
414
418
434
434
436
444
463
452
451
449
451
470
450
448
444
446
455
463
474
492
519
549
572
608
571
545
518
477
436
410
389
379
373
367
369
368
376