457
470
447
448
465
449
451
441
441
457
441
442
434
435
437
440
439
433
438
437
442
440
440
449
456
443
444
439
438
443
443
439
438
435
442
439
436
433
431
433
440
441
444
436
437
441
453
445
442
446
450
458
457
456
458
461
458
451
450
434
432
429
427
426