418
417
406
409
419
427
438
421
423
426
430
431
428
430
437
454
438
433
437
436
436
437
434
446
434
438
438
439
434
437
438
440
448
436
441
452
434
433
433
446
440
444
439
437
455
439
434
431
427
425
426
424
427
426
423
428
437
449
441
442
447
448
468
450