429
431
426
434
447
447
453
439
447
444
446
447
444
453
444
445
442
437
435
439
440
438
434
451
449
438
438
436
434
444
445
444
449
435
447
445
445
447
451
452
456
459
469
447
444
454
441
440
433
436
441
449
452
460
464
486
473
466
455
441
439
430
421
415