353
353
352
346
351
350
361
348
345
346
351
348
346
354
344
345
346
358
346
353
342
349
349
350
351
347
348
351
353
356
354
352
356
366
360
362
361
361
366
367
366
367
366
368
375
372
372
376
368
374
384
378
377
374
376
377
378
381
375
374
378
376
377
378