464
461
458
457
444
442
443
440
436
431
424
427
434
424
425
429
451
451
456
458
445
439
430
421
411
402
405
416
407
410
412
417
424
428
437
429
431
438
440
447
438
438
441
442
462
450
436
454
443
443
449
436
439
448
441
440
442
438
439
446
454
434
435
438