424
434
409
407
412
417
419
427
422
428
431
435
441
432
430
444
436
434
442
428
431
434
448
433
430
432
436
457
437
435
437
439
439
439
439
436
439
443
439
438
436
444
445
447
451
481
488
519
549
590
574
586
542
500
473
412
386
373
364
362
362
365
375
388