453
441
439
435
429
428
431
431
432
428
428
433
434
440
432
430
437
439
447
440
436
442
448
452
453
453
460
460
460
454
448
458
444
438
432
427
429
430
433
432
430
445
434
441
437
436
443
460
467
485
496
481
482
478
468
447
431
444
433
443
455
438
446
446