433
436
447
438
437
435
444
443
448
438
438
433
437
456
439
447
434
453
440
439
438
438
440
441
441
449
438
440
443
444
459
440
441
439
441
437
433
450
434
432
431
426
423
429
449
438
454
464
454
457
457
455
450
452
452
468
445
441
458
448
456
474
488
482