452
455
450
461
443
444
440
436
432
441
447
446
451
453
455
460
461
455
468
453
455
473
452
449
453
452
450
448
452
459
453
457
451
448
436
431
431
425
416
415
423
442
450
454
457
449
450
470
456
448
454
457
457
460
467
488
518
562
605
624
641
569
484
384