445
453
462
465
488
465
460
480
458
460
446
440
447
444
440
438
433
434
436
442
438
432
436
437
440
439
455
440
444
445
445
439
439
444
448
442
439
437
457
443
444
441
442
440
459
443
439
442
449
469
451
456
444
445
444
444
443
438
439
443
445
443
438
442