479
428
350
325
352
378
389
406
404
402
426
422
413
333
305
229
295
363
359
348
389
455
415
296
141
153
352
468
488
466
444
431
450
462
408
314
330
343
358
345
401
426
465
396
226
11
211
482
573
577
528
481
437
392
357
362
310
333
305
251
325
357
354
368