444
434
309
255
238
358
410
423
426
406
390
404
397
364
342
293
286
282
294
366
415
416
448
448
325
197
251
362
425
439
428
417
393
405
381
385
410
397
296
297
361
394
392
380
413
351
284
298
339
370
392
400
403
397
394
373
374
389
432
412
327
328
346
359