392
393
389
391
393
393
395
391
395
404
404
396
397
406
401
396
399
404
393
396
411
398
393
403
394
400
412
402
399
396
401
401
403
399
394
399
400
400
400
391
389
391
401
392
394
406
406
418
452
455
475
503
529
547
555
556
528
506
473
442
414
368
349
334