391
377
368
376
394
388
372
372
373
369
365
344
280
327
382
403
406
400
391
384
385
385
384
405
394
389
375
380
377
379
375
397
327
331
374
399
386
388
387
383
378
376
375
380
393
391
370
356
365
373
380
379
400
369
344
358
369
371
376
377
376
375
368
363