413
418
406
410
403
407
401
410
397
407
396
397
393
401
390
403
402
396
397
398
390
391
395
396
393
398
411
402
398
396
400
399
399
398
410
397
395
403
396
400
392
392
398
398
397
395
392
395
390
399
392
410
394
401
397
395
391
389
396
399
400
404
407
398