358
359
361
370
369
366
365
374
378
383
376
385
380
385
401
387
384
390
383
387
386
384
384
387
387
388
389
389
404
405
423
445
476
485
507
516
509
498
462
426
383
344
311
293
273
267
279
293
305
324
331
346
352
361
366
377
389
405
412
409
411
430
425
412