BACK 0_0 mean=322.996 RMS=323.001 MAV=322.996 WL=113.000 f_max1=0.391 amp1=144.892 f_max2=2.344 amp2=101.880 f_max3=1.953 amp3=89.887
BACK 0_1 mean=322.246 RMS=322.249 MAV=322.246 WL=120.000 f_max1=1.562 amp1=113.970 f_max2=0.781 amp2=107.654 f_max3=1.953 amp3=91.698
BACK 0_2 mean=322.430 RMS=322.433 MAV=322.430 WL=112.000 f_max1=1.562 amp1=114.179 f_max2=1.172 amp2=96.714 f_max3=0.781 amp3=81.699
BACK 0_3 mean=322.453 RMS=322.454 MAV=322.453 WL=100.000 f_max1=3.125 amp1=56.743 f_max2=1.562 amp2=46.742 f_max3=4.297 amp3=44.439
BACK 0_4 mean=322.586 RMS=322.588 MAV=322.586 WL=94.000 f_max1=0.781 amp1=96.207 f_max2=0.391 amp2=90.845 f_max3=1.562 amp3=75.796
BACK 0_5 mean=322.535 RMS=322.538 MAV=322.535 WL=101.000 f_max1=0.781 amp1=137.134 f_max2=0.391 amp2=84.605 f_max3=1.953 amp3=74.382
BACK 0_6 mean=322.129 RMS=322.131 MAV=322.129 WL=109.000 f_max1=0.781 amp1=84.279 f_max2=2.344 amp2=72.803 f_max3=2.734 amp3=59.632
BACK 0_7 mean=322.328 RMS=322.330 MAV=322.328 WL=102.000 f_max1=2.344 amp1=72.571 f_max2=3.906 amp2=65.829 f_max3=0.781 amp3=64.269
BACK 0_8 mean=322.133 RMS=322.137 MAV=322.133 WL=106.000 f_max1=2.344 amp1=127.571 f_max2=0.391 amp2=111.746 f_max3=0.781 amp3=101.000
BACK 0_9 mean=322.609 RMS=322.617 MAV=322.609 WL=119.000 f_max1=0.391 amp1=242.251 f_max2=2.734 amp2=151.451 f_max3=2.344 amp3=141.310
BACK 0_10 mean=322.746 RMS=322.751 MAV=322.746 WL=123.000 f_max1=0.391 amp1=183.895 f_max2=3.516 amp2=92.554 f_max3=1.562 amp3=88.334
BACK 0_11 mean=322.395 RMS=322.398 MAV=322.395 WL=123.000 f_max1=0.391 amp1=148.162 f_max2=0.781 amp2=93.997 f_max3=1.172 amp3=82.288
BACK 0_12 mean=322.660 RMS=322.663 MAV=322.660 WL=117.000 f_max1=0.781 amp1=136.967 f_max2=2.734 amp2=85.483 f_max3=0.391 amp3=80.065
BACK 0_13 mean=322.422 RMS=322.423 MAV=322.422 WL=115.000 f_max1=2.734 amp1=75.443 f_max2=2.344 amp2=54.373 f_max3=1.562 amp3=53.342
BACK 0_14 mean=322.617 RMS=322.621 MAV=322.617 WL=109.000 f_max1=0.781 amp1=132.916 f_max2=0.391 amp2=124.212 f_max3=1.172 amp3=98.382
BACK 0_15 mean=322.574 RMS=322.578 MAV=322.574 WL=107.000 f_max1=0.391 amp1=138.018 f_max2=0.781 amp2=135.112 f_max3=1.953 amp3=89.916
BACK 0_16 mean=322.449 RMS=322.451 MAV=322.449 WL=117.000 f_max1=1.562 amp1=97.984 f_max2=1.172 amp2=61.495 f_max3=0.391 amp3=55.740
BACK 0_17 mean=322.422 RMS=322.424 MAV=322.422 WL=102.000 f_max1=1.562 amp1=118.959 f_max2=1.172 amp2=64.796 f_max3=0.781 amp3=53.182
BACK 0_18 mean=322.438 RMS=322.439 MAV=322.438 WL=91.000 f_max1=0.781 amp1=91.535 f_max2=1.562 amp2=82.486 f_max3=2.734 amp3=76.805
BACK 0_19 mean=322.773 RMS=322.775 MAV=322.773 WL=104.000 f_max1=0.781 amp1=87.390 f_max2=1.562 amp2=73.206 f_max3=1.172 amp3=69.522
BACK 0_20 mean=322.582 RMS=322.584 MAV=322.582 WL=103.000 f_max1=0.391 amp1=113.658 f_max2=1.172 amp2=68.902 f_max3=2.344 amp3=63.140
BACK 0_21 mean=322.039 RMS=322.041 MAV=322.039 WL=87.000 f_max1=1.562 amp1=117.632 f_max2=2.734 amp2=87.167 f_max3=0.781 amp3=84.945
BACK 0_22 mean=322.328 RMS=322.331 MAV=322.328 WL=83.000 f_max1=1.172 amp1=104.990 f_max2=2.734 amp2=99.855 f_max3=1.562 amp3=94.885
