name;fileN;frame;mean;RMS;MAV;WL;f_max1;amp1;f_max2;amp2;f_max3;amp3
BACK;0;0;322.996;323.001;322.996;113.000;0.391;144.892;2.344;101.880;1.953;89.887
BACK;0;1;322.246;322.249;322.246;120.000;1.562;113.970;0.781;107.654;1.953;91.698
BACK;0;2;322.430;322.433;322.430;112.000;1.562;114.179;1.172;96.714;0.781;81.699
BACK;0;3;322.453;322.454;322.453;100.000;3.125;56.743;1.562;46.742;4.297;44.439
BACK;0;4;322.586;322.588;322.586;94.000;0.781;96.207;0.391;90.845;1.562;75.796
BACK;0;5;322.535;322.538;322.535;101.000;0.781;137.134;0.391;84.605;1.953;74.382
BACK;0;6;322.129;322.131;322.129;109.000;0.781;84.279;2.344;72.803;2.734;59.632
BACK;0;7;322.328;322.330;322.328;102.000;2.344;72.571;3.906;65.829;0.781;64.269
BACK;0;8;322.133;322.137;322.133;106.000;2.344;127.571;0.391;111.746;0.781;101.000
BACK;0;9;322.609;322.617;322.609;119.000;0.391;242.251;2.734;151.451;2.344;141.310
BACK;0;10;322.746;322.751;322.746;123.000;0.391;183.895;3.516;92.554;1.562;88.334
BACK;0;11;322.395;322.398;322.395;123.000;0.391;148.162;0.781;93.997;1.172;82.288
BACK;0;12;322.660;322.663;322.660;117.000;0.781;136.967;2.734;85.483;0.391;80.065
BACK;0;13;322.422;322.423;322.422;115.000;2.734;75.443;2.344;54.373;1.562;53.342
BACK;0;14;322.617;322.621;322.617;109.000;0.781;132.916;0.391;124.212;1.172;98.382
BACK;0;15;322.574;322.578;322.574;107.000;0.391;138.018;0.781;135.112;1.953;89.916
BACK;0;16;322.449;322.451;322.449;117.000;1.562;97.984;1.172;61.495;0.391;55.740
BACK;0;17;322.422;322.424;322.422;102.000;1.562;118.959;1.172;64.796;0.781;53.182
BACK;0;18;322.438;322.439;322.438;91.000;0.781;91.535;1.562;82.486;2.734;76.805
BACK;0;19;322.773;322.775;322.773;104.000;0.781;87.390;1.562;73.206;1.172;69.522
BACK;0;20;322.582;322.584;322.582;103.000;0.391;113.658;1.172;68.902;2.344;63.140
BACK;0;21;322.039;322.041;322.039;87.000;1.562;117.632;2.734;87.167;0.781;84.945
BACK;0;22;322.328;322.331;322.328;83.000;1.172;104.990;2.734;99.855;1.562;94.885
