Безымянный 1_0 mean=0.147 RMS=40.474 MAV=22.125 WL=963.114 f_max1=0.781 amp1=722.525 f_max2=0.938 amp2=653.412 f_max3=1.094 amp3=580.735
Безымянный 10_0 mean=-0.067 RMS=46.115 MAV=28.523 WL=1220.769 f_max1=0.781 amp1=992.011 f_max2=0.938 amp2=865.922 f_max3=1.094 amp3=587.394
Безымянный 11_0 mean=0.108 RMS=48.903 MAV=26.485 WL=1192.951 f_max1=0.781 amp1=900.547 f_max2=0.938 amp2=807.027 f_max3=1.094 amp3=704.930
Безымянный 12_0 mean=-0.180 RMS=41.696 MAV=23.358 WL=1062.320 f_max1=0.781 amp1=732.261 f_max2=0.938 amp2=720.529 f_max3=1.094 amp3=513.090
Безымянный 13_0 mean=-0.054 RMS=42.409 MAV=22.609 WL=1056.977 f_max1=0.781 amp1=742.680 f_max2=0.938 amp2=651.138 f_max3=1.094 amp3=567.779
Безымянный 14_0 mean=0.110 RMS=42.208 MAV=24.084 WL=1079.586 f_max1=0.938 amp1=771.694 f_max2=0.781 amp2=715.787 f_max3=1.094 amp3=538.264
Безымянный 15_0 mean=-0.089 RMS=37.652 MAV=21.193 WL=936.988 f_max1=0.938 amp1=641.795 f_max2=0.781 amp2=634.379 f_max3=1.094 amp3=566.642
Безымянный 16_0 mean=0.035 RMS=39.905 MAV=21.543 WL=989.194 f_max1=0.781 amp1=723.891 f_max2=0.938 amp2=623.615 f_max3=1.094 amp3=555.690
Безымянный 17_0 mean=0.008 RMS=39.700 MAV=21.472 WL=959.616 f_max1=0.781 amp1=684.359 f_max2=0.938 amp2=638.240 f_max3=1.094 amp3=579.057
Безымянный 18_0 mean=-0.078 RMS=39.493 MAV=21.394 WL=967.021 f_max1=0.938 amp1=628.920 f_max2=0.781 amp2=624.020 f_max3=1.094 amp3=543.824
Безымянный 19_0 mean=0.132 RMS=43.737 MAV=23.262 WL=1060.475 f_max1=0.781 amp1=756.463 f_max2=0.938 amp2=724.756 f_max3=1.094 amp3=577.964
Безымянный 2_0 mean=-0.089 RMS=37.652 MAV=21.193 WL=936.988 f_max1=0.938 amp1=641.795 f_max2=0.781 amp2=634.379 f_max3=1.094 amp3=566.642
Безымянный 20_0 mean=0.034 RMS=45.791 MAV=26.048 WL=1211.462 f_max1=0.781 amp1=857.069 f_max2=0.938 amp2=721.149 f_max3=0.625 amp3=554.487
Безымянный 21_0 mean=-0.059 RMS=43.533 MAV=23.195 WL=1097.993 f_max1=0.781 amp1=750.546 f_max2=0.938 amp2=700.327 f_max3=1.094 amp3=604.522
Безымянный 22_0 mean=0.253 RMS=43.211 MAV=23.589 WL=1026.673 f_max1=0.781 amp1=756.967 f_max2=0.938 amp2=709.639 f_max3=1.094 amp3=654.523
Безымянный 23_0 mean=0.020 RMS=42.594 MAV=22.775 WL=1061.852 f_max1=0.781 amp1=734.263 f_max2=0.938 amp2=705.367 f_max3=1.094 amp3=611.015
Безымянный 3_0 mean=-0.032 RMS=36.915 MAV=19.533 WL=888.765 f_max1=0.781 amp1=605.083 f_max2=0.938 amp2=565.291 f_max3=1.094 amp3=525.747
Безымянный 4_0 mean=0.002 RMS=40.363 MAV=20.896 WL=978.761 f_max1=0.781 amp1=661.250 f_max2=0.938 amp2=652.535 f_max3=1.094 amp3=540.180
Безымянный 5_0 mean=0.061 RMS=42.211 MAV=22.757 WL=1088.070 f_max1=0.781 amp1=746.285 f_max2=0.938 amp2=666.810 f_max3=1.094 amp3=647.479
Безымянный 6_0 mean=0.062 RMS=42.746 MAV=23.749 WL=1052.617 f_max1=0.781 amp1=791.073 f_max2=0.938 amp2=693.502 f_max3=1.094 amp3=614.066
Безымянный 7_0 mean=-0.103 RMS=40.411 MAV=21.365 WL=1013.939 f_max1=0.781 amp1=722.064 f_max2=0.938 amp2=644.695 f_max3=1.094 amp3=583.276
Безымянный 8_0 mean=0.021 RMS=43.738 MAV=25.479 WL=1114.176 f_max1=0.781 amp1=871.109 f_max2=0.938 amp2=615.847 f_max3=1.094 amp3=591.382
Безымянный 9_0 mean=-0.315 RMS=44.613 MAV=28.456 WL=1255.115 f_max1=0.781 amp1=681.721 f_max2=1.094 amp2=676.925 f_max3=0.625 amp3=673.411
