name;fileN;frame;mean;RMS;MAV;WL;f_max1;amp1;f_max2;amp2;f_max3;amp3
Безымянный;1;0;0.147;40.474;22.125;963.114;0.781;722.525;0.938;653.412;1.094;580.735
Безымянный;10;0;-0.067;46.115;28.523;1220.769;0.781;992.011;0.938;865.922;1.094;587.394
Безымянный;11;0;0.108;48.903;26.485;1192.951;0.781;900.547;0.938;807.027;1.094;704.930
Безымянный;12;0;-0.180;41.696;23.358;1062.320;0.781;732.261;0.938;720.529;1.094;513.090
Безымянный;13;0;-0.054;42.409;22.609;1056.977;0.781;742.680;0.938;651.138;1.094;567.779
Безымянный;14;0;0.110;42.208;24.084;1079.586;0.938;771.694;0.781;715.787;1.094;538.264
Безымянный;15;0;-0.089;37.652;21.193;936.988;0.938;641.795;0.781;634.379;1.094;566.642
Безымянный;16;0;0.035;39.905;21.543;989.194;0.781;723.891;0.938;623.615;1.094;555.690
Безымянный;17;0;0.008;39.700;21.472;959.616;0.781;684.359;0.938;638.240;1.094;579.057
Безымянный;18;0;-0.078;39.493;21.394;967.021;0.938;628.920;0.781;624.020;1.094;543.824
Безымянный;19;0;0.132;43.737;23.262;1060.475;0.781;756.463;0.938;724.756;1.094;577.964
Безымянный;2;0;-0.089;37.652;21.193;936.988;0.938;641.795;0.781;634.379;1.094;566.642
Безымянный;20;0;0.034;45.791;26.048;1211.462;0.781;857.069;0.938;721.149;0.625;554.487
Безымянный;21;0;-0.059;43.533;23.195;1097.993;0.781;750.546;0.938;700.327;1.094;604.522
Безымянный;22;0;0.253;43.211;23.589;1026.673;0.781;756.967;0.938;709.639;1.094;654.523
Безымянный;23;0;0.020;42.594;22.775;1061.852;0.781;734.263;0.938;705.367;1.094;611.015
Безымянный;3;0;-0.032;36.915;19.533;888.765;0.781;605.083;0.938;565.291;1.094;525.747
Безымянный;4;0;0.002;40.363;20.896;978.761;0.781;661.250;0.938;652.535;1.094;540.180
Безымянный;5;0;0.061;42.211;22.757;1088.070;0.781;746.285;0.938;666.810;1.094;647.479
Безымянный;6;0;0.062;42.746;23.749;1052.617;0.781;791.073;0.938;693.502;1.094;614.066
Безымянный;7;0;-0.103;40.411;21.365;1013.939;0.781;722.064;0.938;644.695;1.094;583.276
Безымянный;8;0;0.021;43.738;25.479;1114.176;0.781;871.109;0.938;615.847;1.094;591.382
Безымянный;9;0;-0.315;44.613;28.456;1255.115;0.781;681.721;1.094;676.925;0.625;673.411
