323
323
324
323
323
322
322
322
321
321
321
321
321
320
321
321
321
321
320
320
322
321
321
321
322
322
322
322
323
322
322
322
322
321
321
321
321
321
320
321
320
320
321
321
321
321
321
321
322
321
322
322
322
322
322
322
321
321
322
322
322
322
322
322
322
322
322
323
323
323
323
324
324
323
323
324
323
323
323
323
323
324
324
324
323
324
324
323
323
324
323
323
323
324
324
323
324
324
323
324
323
323
323
323
322
322
322
322
322
322
321
322
321
321
322
322
322
322
323
323
322
323
323
323
322
323
323
322
323
323
323
322
322
322
323
322
323
323
323
324
324
323
323
322
323
323
322
322
322
322
323
323
323
323
323
323
323
322
322
322
322
322
323
322
322
322
322
322
321
321
321
321
321
321
321
321
321
322
321
322
322
321
321
321
322
322
322
321
321
321
321
322
321
321
322
321
321
321
321
321
321
321
321
321
321
320
321
322
322
322
321
322
323
322
323
323
323
324
323
324
324
324
324
324
324
324
324
324
325
325
325
325
325
324
325
325
325
324
324
324
324
324
324
324
324
324
324
324
324
324
323
324
324
323
323
323
323
324
323
324
323
323
323
323
323
323
323
323
322
322
321
321
321
321
321
321
321
321
322
322
321
321
322
322
322
321
321
321
322
321
321
321
322
322
322
322
322
323
323
323
323
324
324
324
323
323
323
323
322
322
322
323
322
322
322
322
322
322
322
322
323
322
322
323
323
323
322
323
322
323
323
322
322
323
323
322
322
322
322
321
321
322
322
322
322
323
323
322
322
322
322
322
322
322
322
322
322
322
322
322
322
322
322
323
323
323
324
324
324
324
324
323
323
323
323
322
322
322
322
323
322
323
322
322
322
322
322
322
321
322
322
321
321
321
321
322
321
322
322
321
321
321
321
321
320
320
321
321
321
321
321
322
323
324
324
324
323
323
323
324
325
324
324
326
326
326
326
326
326
325
326
325
326
327
328
328
327
327
326
327
326
325
324
325
325
324
322
323
322
322
322
322
321
320
321
321
321
321
321
320
320
321
320
321
320
320
321
321
320
321
321
322
321
322
322
322
323
323
322
323
324
324
323
323
323
323
322
322
322
322
321
321
321
321
321
320
320
320
321
321
321
321
321
320
321
322
322
322
322
322
322
321
321
321
321
321
321
321
320
320
320
320
320
320
320
321
321
320
320
321
321
321
322
322
322
322
323
323
324
323
325
324
325
324
324
324
324
324
323
323
324
324
324
324
323
323
324
323
322
322
321
322
321
322
321
321
321
321
321
321
321
321
323
322
323
322
323
323
323
323
323
323
323
323
322
323
323
323
323
323
323
323
323
323
323
323
323
323
324
324
323
324
324
323
324
323
323
324
323
323
323
323
323
324
323
324
324
323
323
323
322
323
322
323
324
324
323
323
323
322
323
322
322
322
323
322
322
322
321
321
321
322
322
322
323
323
323
324
324
323
323
324
324
323
323
323
323
323
323
323
323
323
324
323
322
323
322
323
323
322
322
322
322
321
321
322
321
321
322
322
321
321
321
322
322
321
321
321
321
322
321
322
322
321
321
322
322
322
322
322
321
322
322
322
322
323
322
322
323
323
323
323
323
323
323
323
323
323
323
322
323
323
324
323
323
323
323
322
322
321
321
321
321
321
322
322
322
323
322
323
322
323
323
323
323
323
323
323
323
323
323
323
322
322
323
321
322
322
322
322
322
322
323
322
322
322
321
321
322
321
323
323
323
323
322
322
323
322
322
322
323
322
321
323
322
321
320
321
320
319
320
320
320
320
321
321
321
321
321
321
321
322
321
321
322
322
323
323
323
323
324
323
324
324
324
324
324
324
324
324
323
324
323
323
322
323
323
323
322
323
323
324
323
324
324
323
323
323
323
323
322
322
322
322
323
323
323
322
322
322
323
322
322
322
322
322
322
322
323
323
323
323
323
323
323
324
324
324
324
323
324
324
324
323
322
322
322
322
321
321
321
321
321
321
321
321
320
321
322
321
322
322
323
323
324
324
324
324
324
324
324
324
323
323
324
323
322
322
322
322
321
321
321
321
322
322
323
322
322
323
322
321
321
321
320
321
320
320
320
321
322
322
322
322
323
323
323
323
323
323
323
323
323
322
322
323
322
322
322
322
321
321
321
321
322
322
321
322
322
322
322
322
323
323
323
323
324
323
323
323
323
324
324
324
325
324
324
324
323
324
324
324
324
324
324
325
325
325
325
324
324
323
323
324
324
323
323
323
323
323
322
323
322
322
322
322
323
322
322
322
323
323
322
323
323
323
323
323
324
324
323
323
323
323
323
323
323
323
323
323
323
323
323
322
322
322
321
322
321
321
320
321
321
321
320
321
320
321
321
320
320
320
321
322
321
321
322
321
321
322
322
322
322
322
322
322
322
323
322
322
323
323
323
323
323
323
323
323
324
323
323
323
322
323
322
323
322
322
322
322
322
322
322
323
323
323
323
322
322
322
322
322
322
322
321
322
322
322
322
320
320
320
321
321
320
320
320
321
321
321
322
321
321
321
321
322
322
322
323
323
323
324
325
325
326
325
325
325
326
326
325
326
326
325
325
324
324
324
324
324
323
322
322
321
321
320
320
320
320
320
321
320
321
320
320
320
321
321
321
322
321
322
321
322
323
323
323
323
323
323
322
323
322
323
322
323
324
323
323
323
323
322
323
322
322
323
323
323
323
324
323
323
323
324
323
323
324
324
324
324
323
324
323
323
323
323
322
321
321
321
321
321
321
321
321
321
322
322
322
322
323
322
321
321
321
321
321
321
320
322
321
321
322
321
321
321
322
322
322
322
323
323
323
323
323
324
323
323
323
322
322
322
322
321
321
321
321
321
321
321
322
322
322
322
322
322
322
322
322
322
321
322
321
322
322
321
322
322
321
322
321
322
322
322
322
322
322
322
322
322
322
322
323
323
322
322
323
323
323
324
324
324
325
324
324
324
325
325
325
325
324
324
325
324
324
323
323
323
323
323
323
323
323
322
323
323
323
323
323
323
323
323
323
323
323
322
322
322
322
322
321
320
320
319
320
321
320
320
320
321
322
322
323
322
323
323
324
324
324
325
325
325
326
325
325
325
324
324
323
324
323
323
323
322
323
322
322
322
322
322
321
322
323
323
323
323
323
322
323
322
323
322
322
322
322
321
322
322
323
323
325
324
324
324
323
324
325
324
325
324
324
324
324
323
324
323
323
322
321
322
322
322
321
322
321
321
322
321
322
321
321
321
322
322
322
322
322
321
322
322
322
321
322
322
322
323
323
323
323
324
324
323
323
323
323
323
322
322
323
322
322
323
322
321
321
321
321
321
322
322
322
322
322
322
322
323
323
322
323
323
324
324
323
323
323
323
323
323
323
323
322
321
321
320
320
320
320
320
319
320
318
319
319
318
319
319
319
319
319
319
320
319
319
319
321
320
320
321
321
321
321
321
322
322
322
322
322
321
322
322
321
322
322
322
323
323
323
323
323
324
324
324
324
324
323
323
323
323
324
324
324
324
325
325
325
325
324
324
324
324
324
324
324
324
323
323
323
322
322
322
321
321
321
321
321
321
320
321
321
321
321
322
322
321
322
323
322
323
322
322
322
322
322
323
323
323
324
324
324
324
324
324
325
324
324
324
324
325
325
325
325
325
325
325
325
323
324
324
324
323
324
324
324
323
324
323
323
323
323
323
323
323
323
324
323
323
322
321
321
321
321
320
321
320
320
320
320
321
321
321
321
321
321
321
321
321
321
322
322
321
322
321
321
321
322
322
322
322
321
321
321
322
322
322
322
321
321
321
321
320
321
321
320
320
321
321
321
321
322
322
322
322
323
322
322
323
323
323
323
324
323
324
323
324
324
324
324
323
324
324
324
324
324
325
324
324
324
324
324
325
324
325
325
325
324
324
323
323
323
323
323
322
321
322
321
320
321
320
320
320
320
320
320
319
320
320
319
319
319
320
320
321
320
320
321
322
322
322
321
321
321
320
321
321
322
322
321
322
322
322
322
321
322
322
323
323
323
323
323
323
322
323
323
323
322
322
322
322
322
323
323
322
323
322
322
323
323
323
323
322
322
322
323
323
323
323
323
323
323
322
322
322
322
322
323
322
322
322
323
323
322
323
322
322
322
323
322
323
323
322
322
322
322
322
323
323
322
322
323
323
323
323
323
325
325
325
326
325
326
325
325
326
324
325
325
325
324
323
322
322
322
322
321
321
321
322
321
321
321
321
321
322
322
322
322
322
322
322
322
322
322
322
323
323
323
323
323
324
323
323
322
322
323
322
323
322
323
323
323
323
323
323
322
323
323
322
323
322
322
322
322
323
322
322
323
322
323
323
323
323
323
323
324
323
323
323
323
323
323
322
323
323
323
323
323
323
322
323
323
323
323
323
323
323
323
323
323
323
323
324
324
323
323
323
323
323
323
322
323
322
321
322
322
322
321
322
323
322
322
322
323
323
323
323
323
322
323
322
324
324
323
323
323
322
322
323
322
321
323
322
322
322
321
320
320
321
321
321
321
321
321
321
322
322
323
322
323
323
323
323
323
324
324
324
324
324
323
323
324
323
323
323
323
323
322
322
322
321
321
321
320
321
322
320
322
323
323
322
322
322
321
321
322
321
322
322
322
322
323
323
323
322
322
324
324
324
324
324
324
323
323
324
323
322
323
322
322
322
322
321
322
322
322
322
323
322
322
322
322
322
321
322
322
322
321
321
321
321
321
321
321
321
322
321
321
320
322
322
322
322
323
323
323
323
325
324
323
322
323
323
322
321
321
320
320
320
321
320
320
321
321
322
321
322
322
322
322
322
322
323
323
323
323
322
322
322
321
321
322
323
323
323
323
324
324
324
324
324
324
323
322
323
323
322
322
322
322
321
321
321
321
320
321
321
321
322
321
322
321
321
321
321
322
323
322
322
321
322
322
322
321
321
321
320
320
321
320
321
321
321
321
321
322
321
322
322
323
322
323
322
322
322
322
321
322
321
321
321
321
322
322
322
322
322
322
322
321
320
321
322
321
322
323
323
323
324
325
326
326
326
326
326
327
327
328
327
327
326
326
325
325
324
324
323
323
323
324
322
322
321
322
321
321
322
321
322
322
323
322
323
323
323
323
324
323
323
324
323
324
323
324
323
323
323
323
322
323
323
322
323
323
322
323
322
322
323
322
322
322
322
322
323
323
323
323
323
323
324
324
324
324
324
323
325
324
323
323
324
323
323
323
323
323
322
323
322
323
323
323
324
324
323
323
322
323
323
323
323
323
323
323
323
323
323
323
323
323
323
323
323
323
323
323
324
323
323
323
323
322
322
322
322
323
323
322
323
323
323
323
323
323
323
323
323
322
322
322
322
322
322
321
321
321
320
320
320
320
320
321
321
321
320
320
320
319
320
321
320
320
320
321
320
321
321
322
321
322
321
321
321
322
322
322
322
322
322
322
322
323
323
322
322
323
323
323
323
322
322
322
322
321
322
320
321
321
321
320
321
321
321
320
320
320
321
321
320
321
321
321
321
322
321
321
322
322
321
322
322
323
322
322
323
323
323
322
323
323
324
324
323
323
323
322
322
322
322
322
322
323
323
322
321
322
321
321
321
321
322
321
321
321
322
323
323
322
323
324
324
324
324
324
324
325
324
325
324
324
323
323
323
323
322
322
322
322
321
321
321
322
321
321
322
321
321
322
322
322
323
322
322
322
322
323
323
322
323
323
323
323
323
323
323
323
323
323
324
323
323
323
323
323
323
322
322
322
324
324
324
323
323
324
323
322
323
323
323
323
323
323
323
323
323
322
322
323
323
323
323
324
323
323
323
324
323
323
324
323
322
322
321
322
322
322
322
322
322
321
322
322
322
322
323
322
323
323
323
322
323
323
323
323
323
322
322
322
322
322
320
320
320
320
320
321
321
321
321
322
321
322
322
323
323
324
324
324
323
323
323
324
323
323
323
323
323
322
323
322
322
322
322
321
321
321
321
321
321
321
320
321
321
321
321
321
321
321
320
321
321
321
321
321
322
321
321
322
322
321
321
321
320
320
320
320
321
320
320
320
320
320
321
320
321
321
320
321
321
322
321
322
322
322
322
323
322
323
323
323
324
324
324
326
326
326
325
325
324
325
324
324
324
324
324
324
323
323
323
323
323
324
323
323
323
323
323
323
323
323
323
323
324
323
323
324
322
322
322
322
323
323
322
322
322
323
322
323
322
322
323
323
323
323
323
323
322
323
322
322
322
322
323
322
322
321
322
322
321
320
320
319
320
319
319
319
319
320
320
321
322
322
321
321
322
321
322
322
322
322
323
323
323
324
324
324
325
325
326
326
326
326
326
325
325
325
326
325
325
325
324
324
324
324
323
323
324
324
324
324
324
324
324
325
325
324
325
325
325
324
325
324
325
325
325
325
325
325
325
325
325
325
325
324
325
324
325
324
324
323
324
323
323
323
324
324
324
323
323
322
323
322
322
322
322
322
322
323
323
322
322
323
323
323
323
324
324
324
323
324
324
324
324
324
324
323
322
321
321
321
321
320
320
320
320
320
319
319
319
319
319
319
319
319
320
320
320
320
320
320
320
320
321
321
321
321
320
321
320
321
321
321
322
321
321
322
322
322
322
323
323
324
323
323
323
323
322
322
322
321
322
322
321
321
321
321
321
320
321
320
322
321
320
321
321
321
321
322
322
321
322
321
321
321
322
321
322
322
322
322
322
322
323
322
323
323
323
323
323
322
323
322
322
323
322
322
323
322
323
323
322
322
322
