378
383
373
374
377
374
372
364
364
365
366
366
363
369
380
370
372
371
380
377
382
396
389
387
384
394
385
388
380
373
379
389
384
378
375
377
379
379
379
389
378
393
403
402
402
405
409
413
416
409
405
406
411
402
400
389
382
386
391
396
381
379
386
379