399
409
406
412
415
421
435
446
459
476
483
500
503
513
482
460
436
413
387
368
354
357
351
349
348
361
352
361
364
382
376
381
384
391
405
398
397
398
413
406
408
400
394
396
396
398
397
396
412
409
404
399
393
407
400
407
413
401
398
401
412
407
405
402