383
403
400
415
423
433
421
431
439
437
443
450
453
454
451
439
422
414
386
384
381
380
381
381
384
396
391
393
404
397
409
423
447
445
451
458
453
439
421
401
388
376
366
360
357
360
369
375
379
383
384
404
399
404
415
406
420
417
414
423
411
412
400
413