400
404
411
413
410
406
409
418
411
413
413
423
416
418
417
426
407
411
423
432
426
425
428
433
432
443
432
428
432
444
432
427
419
410
403
405
418
420
417
435
439
444
436
431
428
427
423
417
405
403
412
404
405
403
413
405
404
399
395
395
381
378
379
377