405
402
403
401
410
412
402
405
410
411
410
412
416
410
416
427
449
453
473
489
500
502
493
478
463
445
416
393
387
370
363
362
355
356
361
367
367
374
371
370
382
386
390
407
408
429
447
462
471
469
466
464
444
416
406
374
369
365
354
358
359
368
375
382