404
406
409
414
405
406
417
413
409
404
400
406
406
405
406
404
405
410
419
429
448
448
467
497
497
501
497
495
478
456
433
410
394
381
368
363
358
357
359
358
355
353
354
361
363
368
383
371
375
380
379
381
383
388
390
393
395
397
395
397
393
398
399
400